%YAML 1.1
%TAG !u! tag:unity3d.com,2011:
--- !u!21 &2100000
Material:
  serializedVersion: 3
  m_ObjectHideFlags: 0
  m_PrefabParentObject: {fileID: 0}
  m_PrefabInternal: {fileID: 0}
  m_Name: texture-half-light-blue-soft-1047124
  m_Shader: {fileID: 4800000, guid: d3ee48d8be34cf24aa8772e504ec0452, type: 3}
  m_ShaderKeywords: []
  m_CustomRenderQueue: -1
  m_SavedProperties:
    serializedVersion: 2
    m_TexEnvs:
      data:
        first:
          name: _MainTex
        second:
          m_Texture: {fileID: 2800000, guid: e5f1b6a3056fb3843af31c79cbe1a400, type: 3}
          m_Scale: {x: 1, y: 1}
          m_Offset: {x: 0, y: 0}
    m_Floats:
      data:
        first:
          name: _GlowAmount
        second: 5
    m_Colors:
      data:
        first:
          name: _Color
        second: {r: .588, g: .588, b: .588, a: 1}
